48;1;1994;1988;;P-PORTA UNICA;5033-PONTILHADO 10MM TEMP;obs1;obs2;obs3;obs4;obs5;obs6;obs7;obs8;obs9;GISELE BRUM DE ARRUDA;
5;1;1000;2000;;PD-PORTA DIREITA;5033-PONTILHADO 10MM TEMP;obs1;obs2;obs3;obs4;obs5;obs6;obs7;obs8;obs9;GISELE BRUM DE ARRUDA;
6;1;1000;2000;;PE-PORTA ESQUERDA;5033-PONTILHADO 10MM TEMP;obs1;obs2;obs3;obs4;obs5;obs6;obs7;obs8;obs9;GISELE BRUM DE ARRUDA;
33;1;500;2000;;FD-FIXO DIREITO;5033-PONTILHADO 10MM TEMP;obs1;obs2;obs3;obs4;obs5;obs6;obs7;obs8;obs9;GISELE BRUM DE ARRUDA;
34;1;500;2000;;FE-FIXO ESQUERDO;5033-PONTILHADO 10MM TEMP;obs1;obs2;obs3;obs4;obs5;obs6;obs7;obs8;obs9;GISELE BRUM DE ARRUDA;
5;1;500;2000;;PD-PORTA DIREITA;5033-PONTILHADO 10MM TEMP;obs1;obs2;obs3;obs4;obs5;obs6;obs7;obs8;obs9;GISELE BRUM DE ARRUDA;
6;1;500;2000;;PE-PORTA ESQUERDA;5033-PONTILHADO 10MM TEMP;obs1;obs2;obs3;obs4;obs5;obs6;obs7;obs8;obs9;GISELE BRUM DE ARRUDA;
