33;1;666,67;2500;;FD-FIXO DIREITO;4990-PONTILHADO 10MM TEMP;obs1;obs2;obs3;obs4;obs5;obs6;obs7;obs8;obs9;ANA LUCIA S.MATSUMOTO;
34;1;666,67;2500;;FE-FIXO ESQUERDO;4990-PONTILHADO 10MM TEMP;obs1;obs2;obs3;obs4;obs5;obs6;obs7;obs8;obs9;ANA LUCIA S.MATSUMOTO;
48;1;666,67;2125;;P-PORTA UNICA;4990-PONTILHADO 10MM TEMP;obs1;obs2;obs3;obs4;obs5;obs6;obs7;obs8;obs9;ANA LUCIA S.MATSUMOTO;
3;1;666,67;375;;B-BANDEIRA UNICA;4990-PONTILHADO 10MM TEMP;obs1;obs2;obs3;obs4;obs5;obs6;obs7;obs8;obs9;ANA LUCIA S.MATSUMOTO;
